ders_016/transcript
# ERROR: No extended dataflow license exists
# vsim -work work tb_fifo 
# Start time: 19:05:46 on Jan 08,2026
# Loading work.tb_fifo
# Loading work.fifo
add wave -position insertpoint  \
sim:/tb_fifo/DATA_WIDTH \
sim:/tb_fifo/FIFO_DEPTH \
sim:/tb_fifo/CLK_PERIOD \
sim:/tb_fifo/clk \
sim:/tb_fifo/rst \
sim:/tb_fifo/wr_en \
sim:/tb_fifo/rd_en \
sim:/tb_fifo/wdata \
sim:/tb_fifo/rdata \
sim:/tb_fifo/full \
sim:/tb_fifo/empty
restart
run -all
# Time: 0 | rst: 1 | wr_en: 0 | rd_en: 0 | wdata:   0 | rdata:   x | full: x | empty: x 
# Time: 5 | rst: 0 | wr_en: 0 | rd_en: 0 | wdata:   0 | rdata:   0 | full: 0 | empty: 1 
# Reset completed at time: 5
# Test 1: Writing to FIFO until full
# Time: 15 | rst: 0 | wr_en: 1 | rd_en: 0 | wdata:  36 | rdata:   0 | full: 0 | empty: 1 
# Write data:  36, Full: 0, Empty: 1 at time 16
# Time: 25 | rst: 0 | wr_en: 1 | rd_en: 0 | wdata: 129 | rdata:   0 | full: 0 | empty: 0 
# Write data: 129, Full: 0, Empty: 0 at time 26
# Time: 35 | rst: 0 | wr_en: 1 | rd_en: 0 | wdata:   9 | rdata:   0 | full: 0 | empty: 0 
# Write data:   9, Full: 0, Empty: 0 at time 36
# Time: 45 | rst: 0 | wr_en: 1 | rd_en: 0 | wdata:  99 | rdata:   0 | full: 0 | empty: 0 
# Write data:  99, Full: 0, Empty: 0 at time 46
# Time: 55 | rst: 0 | wr_en: 1 | rd_en: 0 | wdata:  13 | rdata:   0 | full: 0 | empty: 0 
# Write data:  13, Full: 0, Empty: 0 at time 56
# Time: 65 | rst: 0 | wr_en: 1 | rd_en: 0 | wdata: 141 | rdata:   0 | full: 0 | empty: 0 
# Write data: 141, Full: 0, Empty: 0 at time 66
# Time: 75 | rst: 0 | wr_en: 1 | rd_en: 0 | wdata: 101 | rdata:   0 | full: 0 | empty: 0 
# Write data: 101, Full: 0, Empty: 0 at time 76
# Time: 85 | rst: 0 | wr_en: 1 | rd_en: 0 | wdata:  18 | rdata:   0 | full: 0 | empty: 0 
# Write data:  18, Full: 0, Empty: 0 at time 86
# Time: 95 | rst: 0 | wr_en: 0 | rd_en: 0 | wdata:  18 | rdata:   0 | full: 1 | empty: 0 
# Test 2: Attempt writing when FIFO is full
# Time: 105 | rst: 0 | wr_en: 1 | rd_en: 0 | wdata:   1 | rdata:   0 | full: 1 | empty: 0 
# Time: 106 | rst: 0 | wr_en: 0 | rd_en: 0 | wdata:   1 | rdata:   0 | full: 1 | empty: 0 
# Attempt write when full, Full: 1, Empty: 0 at time 106
# Test 3: Reading from FIFO until empty
# Time: 115 | rst: 0 | wr_en: 0 | rd_en: 1 | wdata:   1 | rdata:   0 | full: 1 | empty: 0 
# Read data :   0, Full: 1, Empty: 0 at time 116
# Time: 125 | rst: 0 | wr_en: 0 | rd_en: 1 | wdata:   1 | rdata:  36 | full: 0 | empty: 0 
# Read data :  36, Full: 0, Empty: 0 at time 126
# Time: 135 | rst: 0 | wr_en: 0 | rd_en: 1 | wdata:   1 | rdata: 129 | full: 0 | empty: 0 
# Read data : 129, Full: 0, Empty: 0 at time 136
# Time: 145 | rst: 0 | wr_en: 0 | rd_en: 1 | wdata:   1 | rdata:   9 | full: 0 | empty: 0 
# Read data :   9, Full: 0, Empty: 0 at time 146
# Time: 155 | rst: 0 | wr_en: 0 | rd_en: 1 | wdata:   1 | rdata:  99 | full: 0 | empty: 0 
# Read data :  99, Full: 0, Empty: 0 at time 156
# Time: 165 | rst: 0 | wr_en: 0 | rd_en: 1 | wdata:   1 | rdata:  13 | full: 0 | empty: 0 
# Read data :  13, Full: 0, Empty: 0 at time 166
# Time: 175 | rst: 0 | wr_en: 0 | rd_en: 1 | wdata:   1 | rdata: 141 | full: 0 | empty: 0 
# Read data : 141, Full: 0, Empty: 0 at time 176
# Time: 185 | rst: 0 | wr_en: 0 | rd_en: 1 | wdata:   1 | rdata: 101 | full: 0 | empty: 0 
# Read data : 101, Full: 0, Empty: 0 at time 186
# Time: 195 | rst: 0 | wr_en: 0 | rd_en: 0 | wdata:   1 | rdata:  18 | full: 0 | empty: 1 
# Test 4: Attempt Reading when FIFO is empty
# Time: 205 | rst: 0 | wr_en: 0 | rd_en: 1 | wdata:   1 | rdata:  18 | full: 0 | empty: 1 
# Time: 206 | rst: 0 | wr_en: 0 | rd_en: 0 | wdata:   1 | rdata:  18 | full: 0 | empty: 1 
# Attempt read when full, Full: 0, Empty: 1 at time 206
# Test 5: Simultaneous write and read
# Time: 215 | rst: 0 | wr_en: 1 | rd_en: 1 | wdata:  13 | rdata:  13 | full: 0 | empty: 1 
# Write Data:  13, Read data:  13, Full: 0, Empty: 1 at time 216
# Time: 225 | rst: 0 | wr_en: 1 | rd_en: 1 | wdata: 118 | rdata: 118 | full: 0 | empty: 1 
# Write Data: 118, Read data: 118, Full: 0, Empty: 1 at time 226
# Time: 235 | rst: 0 | wr_en: 1 | rd_en: 1 | wdata:  61 | rdata:  61 | full: 0 | empty: 1 
# Write Data:  61, Read data:  61, Full: 0, Empty: 1 at time 236
# Time: 245 | rst: 0 | wr_en: 1 | rd_en: 1 | wdata: 237 | rdata: 237 | full: 0 | empty: 1 
# Write Data: 237, Read data: 237, Full: 0, Empty: 1 at time 246
# Time: 255 | rst: 0 | wr_en: 1 | rd_en: 1 | wdata: 140 | rdata: 140 | full: 0 | empty: 1 
# Write Data: 140, Read data: 140, Full: 0, Empty: 1 at time 256
# Time: 265 | rst: 0 | wr_en: 0 | rd_en: 0 | wdata: 140 | rdata:  18 | full: 0 | empty: 1 
# Test 6: Reset during operation
# Time: 275 | rst: 0 | wr_en: 1 | rd_en: 0 | wdata: 249 | rdata:  18 | full: 0 | empty: 1 
# Time: 285 | rst: 0 | wr_en: 1 | rd_en: 0 | wdata: 198 | rdata:  18 | full: 0 | empty: 0 
# Time: 295 | rst: 0 | wr_en: 1 | rd_en: 0 | wdata: 197 | rdata:  18 | full: 0 | empty: 0 
# Time: 305 | rst: 1 | wr_en: 1 | rd_en: 0 | wdata: 197 | rdata:  18 | full: 0 | empty: 0 
# Time: 315 | rst: 0 | wr_en: 1 | rd_en: 0 | wdata: 197 | rdata:   0 | full: 0 | empty: 1 
# Reset during operation, Full: 0, Empty: 1 at time 315
# Time: 325 | rst: 0 | wr_en: 1 | rd_en: 0 | wdata: 197 | rdata:   0 | full: 0 | empty: 0 
# ** Note: $finish    : tb/tb_fifo.v(128)
#    Time: 335 ps  Iteration: 1  Instance: /tb_fifo
# 1
# Break in Module tb_fifo at tb/tb_fifo.v line 128
# End time: 19:08:01 on Jan 08,2026, Elapsed time: 0:02:15
# Errors: 0, Warnings: 0
